{
    "data": {
        "acp": [
			{
				"title": "<h3>Experiment - Question-Answer-Text-Script<h3>",
				"var": ["Sentence", "Editing"],
				"Question": "What is AC generator?",
				"Instruction": "<h3>Instruction:</h3>It is the Computer turn. Computer AI asked: What is AC generator? Copy and Paste only the answer(one sentence) from the left-side data window to the right-side script card window.",
				"Stimuli": "Device used to transform mechanical energy into AC electrical power."
			},
			{
				"title": "<h3>Experiment - Question-Answer-Text-Script<h3>",
				"var": ["Sentence", "Editing"],
				"Question": "What is active component?",
				"Instruction": "<h3>Instruction:</h3>It is the Computer turn. Computer AI asked: What is active component? Copy and Paste only the answer(one sentence) from the left-side data window to the right-side script card window.",
				"Stimuli": "A component that changes the amplitude of a signal between input and output."
			},
			{
				"title": "<h3>Experiment - Question-Answer-Text-Script<h3>",
				"var": ["Sentence", "Editing"],
				"Question": "What is AC coupling?",
				"Instruction": "<h3>Instruction:</h3>It is the Computer turn. Computer AI asked: What is AC coupling? Copy and Paste only the answer(one sentence) from the left-side data window to the right-side script card window.",
				"Stimuli": "Circuit that passes an AC signal while blocking a DC voltage."
			},
			{
				"title": "<h3>Experiment - Question-Answer-Text-Script<h3>",
				"var": ["Sentence", "Typing"],
				"Question": "What is active component?",
				"Instruction": "<h3>Instruction:</h3>It is your turn. MANUALLY TYPE IN ALL LETTERS of this question(<b>What is active component?</b>) and then Copy and Paste its answer(one sentence) from the left-side data window to the right-side script card window.<br/><em><b>Please remember to leave a space in between the Question and Answer.</b></em><br/>",
				"Stimuli": "What is active component? A component that changes the amplitude of a signal between input and output."
			},
			{
				"title": "<h3>Experiment - Question-Answer-Text-Script<h3>",
				"var": ["Sentence", "Typing"],
				"Question": "What is AC generator?",
				"Instruction": "<h3>Instruction:</h3>It is your turn. MANUALLY TYPE IN ALL LETTERS of this question(<b>What is AC generator?</b>) and then Copy and Paste its answer(one sentence) from the left-side data window to the right-side script card window.<br/><em><b>Please remember to leave a space in between the Question and Answer.</b></em><br/>",
				"Stimuli": "What is AC generator? Device used to transform mechanical energy into AC electrical power."
			},
			{
				"title": "<h3>Experiment - Question-Answer-Text-Script<h3>",
				"var": ["Sentence", "Typing"],
				"Question": "What is absorption?",
				"Instruction": "<h3>Instruction:</h3>It is your turn. MANUALLY TYPE IN ALL LETTERS of this question(<b>What is absorption?</b>) and then Copy and Paste its answer(one sentence) from the left-side data window to the right-side script card window.<br/><em><b>Please remember to leave a space in between the Question and Answer.</b></em><br/>",
				"Stimuli": "What is absorption? Loss or dissipation of energy as it travels through a medium."
			},
			{
				"title": "<h3>Experiment - Question-Answer-Text-Script<h3>",
				"var": ["Paragraph", "Editing"],
				"Question": "What is active filter?",
				"Instruction": "<h3>Instruction:</h3>It is the Computer turn. Computer AI asked: What is active filter? Copy and Paste only the answer(one paragraph) from the left-side data window to the right-side script card window.",
				"Stimuli": "An active filter is a type of analog electronic filter that uses active components such as an amplifier. Amplifiers included in a filter design can be used to improve the performance and predictability of a filter."
			},
			{
				"title": "<h3>Experiment - Question-Answer-Text-Script<h3>",
				"var": ["Paragraph", "Editing"],
				"Question": "What is AC load line?",
				"Instruction": "<h3>Instruction:</h3>It is the Computer turn. Computer AI asked: What is AC load line? Copy and Paste only the answer(one paragraph) from the left-side data window to the right-side script card window.",
				"Stimuli": "A graph representing all possible combinations of AC output voltage and current for an amplifier. A load line is used in graphical analysis of nonlinear electronic circuits, representing the constraint other parts of the circuit place."
			},
			{
				"title": "<h3>Experiment - Question-Answer-Text-Script<h3>",
				"var": ["Paragraph", "Editing"],
				"Question": "What is AC/DC?",
				"Instruction": "<h3>Instruction:</h3>It is the Computer turn. Computer AI asked: What is AC/DC? Copy and Paste only the answer(one paragraph) from the left-side data window to the right-side script card window.",
				"Stimuli": "Electricity flows in two ways either in alternating current (AC) or in direct current (DC). Electricity or current is nothing more than moving electrons along a conductor, like a wire, that have been harnessed for energy."
			},
			{
				"title": "<h3>Experiment - Question-Answer-Text-Script<h3>",
				"var": ["Paragraph", "Typing"],
				"Question": "What is AC load line?",
				"Instruction": "<h3>Instruction:</h3>It is your turn. MANUALLY TYPE IN ALL LETTERS of this question(<b>What is AC load line?</b>) and then Copy and Paste its answer(one paragraph) from the left-side data window to the right-side script card window.<br/><em><b>Please remember to leave a space in between the Question and Answer.</b></em><br/>",
				"Stimuli": "What is AC load line? A graph representing all possible combinations of AC output voltage and current for an amplifier. A load line is used in graphical analysis of nonlinear electronic circuits."
			},
			{
				"title": "<h3>Experiment - Question-Answer-Text-Script<h3>",
				"var": ["Paragraph", "Typing"],
				"Question": "What is active filter?",
				"Instruction": "<h3>Instruction:</h3>It is your turn. MANUALLY TYPE IN ALL LETTERS of this question(<b>What is active filter?</b>) and then Copy and Paste its answer(one paragraph) from the left-side data window to the right-side script card window.<br/><em><b>Please remember to leave a space in between the Question and Answer.</b></em><br/>",
				"Stimuli": "What is active filter? An active filter is a type of analog electronic filter that uses active components such as an amplifier. Amplifiers included in a filter design can be used to improve the performance and predictability of a filter."
			},
			{
				"title": "<h3>Experiment - Question-Answer-Text-Script<h3>",
				"var": ["Paragraph", "Typing"],
				"Question": "What is acceptor atoms?",
				"Instruction": "<h3>Instruction:</h3>It is your turn. MANUALLY TYPE IN ALL LETTERS of this question(<b>What is acceptor atoms?</b>) and then Copy and Paste its answer(one paragraph) from the left-side data window to the right-side script card window.<br/><em><b>Please remember to leave a space in between the Question and Answer.</b></em><br/>",
				"Stimuli": "What is acceptor atoms? Trivalent atoms that accept free electrons from pentavalent atoms. For example, when silicon (Si), having four valence electrons, needs to be doped as a p-type semiconductor, elements from group III like boron (B) or aluminium (Al)."
			}
        ],
        "xwindow": [
			{
				"title": "<h3>Experiment - Question-Answer-Text-Script<h3>",
				"var": ["Sentence", "Editing"],
				"Question": "What is AC generator?",
				"Instruction": "<h3>Instruction:</h3>It is the Computer turn. Computer AI asked: What is AC generator? Copy and Paste only the answer(one sentence) from the left-side data window to the right-side script card window.",
				"Stimuli": "Device used to transform mechanical energy into AC electrical power."
			},
			{
				"title": "<h3>Experiment - Question-Answer-Text-Script<h3>",
				"var": ["Sentence", "Editing"],
				"Question": "What is active component?",
				"Instruction": "<h3>Instruction:</h3>It is the Computer turn. Computer AI asked: What is active component? Copy and Paste only the answer(one sentence) from the left-side data window to the right-side script card window.",
				"Stimuli": "A component that changes the amplitude of a signal between input and output."
			},
			{
				"title": "<h3>Experiment - Question-Answer-Text-Script<h3>",
				"var": ["Sentence", "Editing"],
				"Question": "What is AC coupling?",
				"Instruction": "<h3>Instruction:</h3>It is the Computer turn. Computer AI asked: What is AC coupling? Copy and Paste only the answer(one sentence) from the left-side data window to the right-side script card window.",
				"Stimuli": "Circuit that passes an AC signal while blocking a DC voltage."
			},
			{
				"title": "<h3>Experiment - Question-Answer-Text-Script<h3>",
				"var": ["Sentence", "Typing"],
				"Question": "What is active component?",
				"Instruction": "<h3>Instruction:</h3>It is your turn. MANUALLY TYPE IN ALL LETTERS of this question(<b>What is active component?</b>) and then Copy and Paste its answer(one sentence) from the left-side data window to the right-side script card window.<br/><em><b>Please remember to leave a space in between the Question and Answer.</b></em><br/>",
				"Stimuli": "What is active component? A component that changes the amplitude of a signal between input and output."
			},
			{
				"title": "<h3>Experiment - Question-Answer-Text-Script<h3>",
				"var": ["Sentence", "Typing"],
				"Question": "What is AC generator?",
				"Instruction": "<h3>Instruction:</h3>It is your turn. MANUALLY TYPE IN ALL LETTERS of this question(<b>What is AC generator?</b>) and then Copy and Paste its answer(one sentence) from the left-side data window to the right-side script card window.<br/><em><b>Please remember to leave a space in between the Question and Answer.</b></em><br/>",
				"Stimuli": "What is AC generator? Device used to transform mechanical energy into AC electrical power."
			},
			{
				"title": "<h3>Experiment - Question-Answer-Text-Script<h3>",
				"var": ["Sentence", "Typing"],
				"Question": "What is absorption?",
				"Instruction": "<h3>Instruction:</h3>It is your turn. MANUALLY TYPE IN ALL LETTERS of this question(<b>What is absorption?</b>) and then Copy and Paste its answer(one sentence) from the left-side data window to the right-side script card window.<br/><em><b>Please remember to leave a space in between the Question and Answer.</b></em><br/>",
				"Stimuli": "What is absorption? Loss or dissipation of energy as it travels through a medium."
			},
			{
				"title": "<h3>Experiment - Question-Answer-Text-Script<h3>",
				"var": ["Paragraph", "Editing"],
				"Question": "What is active filter?",
				"Instruction": "<h3>Instruction:</h3>It is the Computer turn. Computer AI asked: What is active filter? Copy and Paste only the answer(one paragraph) from the left-side data window to the right-side script card window.",
				"Stimuli": "An active filter is a type of analog electronic filter that uses active components such as an amplifier. Amplifiers included in a filter design can be used to improve the performance and predictability of a filter."
			},
			{
				"title": "<h3>Experiment - Question-Answer-Text-Script<h3>",
				"var": ["Paragraph", "Editing"],
				"Question": "What is AC load line?",
				"Instruction": "<h3>Instruction:</h3>It is the Computer turn. Computer AI asked: What is AC load line? Copy and Paste only the answer(one paragraph) from the left-side data window to the right-side script card window.",
				"Stimuli": "A graph representing all possible combinations of AC output voltage and current for an amplifier. A load line is used in graphical analysis of nonlinear electronic circuits, representing the constraint other parts of the circuit place."
			},
			{
				"title": "<h3>Experiment - Question-Answer-Text-Script<h3>",
				"var": ["Paragraph", "Editing"],
				"Question": "What is AC/DC?",
				"Instruction": "<h3>Instruction:</h3>It is the Computer turn. Computer AI asked: What is AC/DC? Copy and Paste only the answer(one paragraph) from the left-side data window to the right-side script card window.",
				"Stimuli": "Electricity flows in two ways either in alternating current (AC) or in direct current (DC). Electricity or current is nothing more than moving electrons along a conductor, like a wire, that have been harnessed for energy."
			},
			{
				"title": "<h3>Experiment - Question-Answer-Text-Script<h3>",
				"var": ["Paragraph", "Typing"],
				"Question": "What is AC load line?",
				"Instruction": "<h3>Instruction:</h3>It is your turn. MANUALLY TYPE IN ALL LETTERS of this question(<b>What is AC load line?</b>) and then Copy and Paste its answer(one paragraph) from the left-side data window to the right-side script card window.<br/><em><b>Please remember to leave a space in between the Question and Answer.</b></em><br/>",
				"Stimuli": "What is AC load line? A graph representing all possible combinations of AC output voltage and current for an amplifier. A load line is used in graphical analysis of nonlinear electronic circuits."
			},
			{
				"title": "<h3>Experiment - Question-Answer-Text-Script<h3>",
				"var": ["Paragraph", "Typing"],
				"Question": "What is active filter?",
				"Instruction": "<h3>Instruction:</h3>It is your turn. MANUALLY TYPE IN ALL LETTERS of this question(<b>What is active filter?</b>) and then Copy and Paste its answer(one paragraph) from the left-side data window to the right-side script card window.<br/><em><b>Please remember to leave a space in between the Question and Answer.</b></em><br/>",
				"Stimuli": "What is active filter? An active filter is a type of analog electronic filter that uses active components such as an amplifier. Amplifiers included in a filter design can be used to improve the performance and predictability of a filter."
			},
			{
				"title": "<h3>Experiment - Question-Answer-Text-Script<h3>",
				"var": ["Paragraph", "Typing"],
				"Question": "What is acceptor atoms?",
				"Instruction": "<h3>Instruction:</h3>It is your turn. MANUALLY TYPE IN ALL LETTERS of this question(<b>What is acceptor atoms?</b>) and then Copy and Paste its answer(one paragraph) from the left-side data window to the right-side script card window.<br/><em><b>Please remember to leave a space in between the Question and Answer.</b></em><br/>",
				"Stimuli": "What is acceptor atoms? Trivalent atoms that accept free electrons from pentavalent atoms. For example, when silicon (Si), having four valence electrons, needs to be doped as a p-type semiconductor, elements from group III like boron (B) or aluminium (Al)."
			}
        ]
    }
}